{
  "cardFlag": "card-2017927158",
  "detail": [
    {
      "num": 0,
      "subject": "single",
      "answerNum": 4,
      "point": "5",
      "correctAnswer": [
        0
      ]
    },
    {
      "num": 1,
      "subject": "single",
      "answerNum": 4,
      "point": "5",
      "correctAnswer": [
        1
      ]
    },
    {
      "num": 2,
      "subject": "single",
      "answerNum": 4,
      "point": "5",
      "correctAnswer": [
        2
      ]
    },
    {
      "num": 3,
      "subject": "single",
      "answerNum": 4,
      "point": "5",
      "correctAnswer": [
        3
      ]
    },
    {
      "num": 4,
      "subject": "single",
      "answerNum": 4,
      "point": "5",
      "correctAnswer": [
        2
      ]
    },
    {
      "num": 5,
      "subject": "single",
      "answerNum": 4,
      "point": "5",
      "correctAnswer": [
        1
      ]
    },
    {
      "num": 6,
      "subject": "multi",
      "answerNum": 4,
      "point": "5",
      "correctAnswer": [
        0,
        1,
        2,
        3
      ]
    },
    {
      "num": 7,
      "subject": "judge",
      "answerNum": 2,
      "point": "5",
      "correctAnswer": [
        0
      ]
    },
    {
      "num": 8,
      "subject": "judge",
      "answerNum": 2,
      "point": "5",
      "correctAnswer": [
        0
      ]
    },
    {
      "num": 9,
      "subject": "judge",
      "answerNum": 2,
      "point": "5",
      "correctAnswer": [
        0
      ]
    }
  ]
}