{
  "data": {
    "correctList": [
      {
        "rate": 30.0,
        "day": 1595569356498
      },
      {
        "rate": 40.0,
        "day": 1595655756498
      },
      {
        "rate": 50.0,
        "day": 1595742156498
      },
      {
        "rate": 30.0,
        "day": 1595828556498
      },
      {
        "rate": 40.0,
        "day": 1595914956498
      },
      {
        "rate": 50.0,
        "day": 1596001356498
      },
      {
        "rate": 30.0,
        "day": 1596087756498
      },
      {
        "rate": 40.0,
        "day": 1596174156498
      },
      {
        "rate": 50.0,
        "day": 1596260556498
      },
      {
        "rate": 30.0,
        "day": 1596346956498
      },
      {
        "rate": 40.0,
        "day": 1596433356498
      },
      {
        "rate": 50.0,
        "day": 1596519756498
      },
      {
        "rate": 30.0,
        "day": 1596606156498
      },
      {
        "rate": 40.0,
        "day": 1596692556498
      },
      {
        "rate": 50.0,
        "day": 1596778956498
      },
      {
        "rate": 30.0,
        "day": 1596865356498
      },
      {
        "rate": 40.0,
        "day": 1596951756498
      },
      {
        "rate": 50.0,
        "day": 1597038156498
      },
      {
        "rate": 30.0,
        "day": 1597124556498
      },
      {
        "rate": 40.0,
        "day": 1597210956498
      },
      {
        "rate": 50.0,
        "day": 1597297356498
      },
      {
        "rate": 30.0,
        "day": 1597383756498
      },
      {
        "rate": 40.0,
        "day": 1597470156498
      },
      {
        "rate": 50.0,
        "day": 1597556556498
      },
      {
        "rate": 30.0,
        "day": 1597642956498
      },
      {
        "rate": 40.0,
        "day": 1597729356498
      },
      {
        "rate": 50.0,
        "day": 1597815756498
      },
      {
        "rate": 30.0,
        "day": 1597902156498
      },
      {
        "rate": 40.0,
        "day": 1597988556498
      },
      {
        "rate": 50.0,
        "day": 1598074956498
      }
    ],
    "completionList": [
      {
        "rate": 30.0,
        "day": 1595569356498
      },
      {
        "rate": 0.0,
        "day": 1595655756498
      },
      {
        "rate": 0.0,
        "day": 1595742156498
      },
      {
        "rate": 50.0,
        "day": 1595828556498
      },
      {
        "rate": 0.0,
        "day": 1595914956498
      },
      {
        "rate": 0.0,
        "day": 1596001356498
      },
      {
        "rate": 0.0,
        "day": 1596087756498
      },
      {
        "rate": 0.0,
        "day": 1596174156498
      },
      {
        "rate": 0.0,
        "day": 1596260556498
      },
      {
        "rate": 0.0,
        "day": 1596346956498
      },
      {
        "rate": 0.0,
        "day": 1596433356498
      },
      {
        "rate": 0.0,
        "day": 1596519756498
      },
      {
        "rate": 0.0,
        "day": 1596606156498
      },
      {
        "rate": 0.0,
        "day": 1596692556498
      },
      {
        "rate": 0.0,
        "day": 1596778956498
      },
      {
        "rate": 0.0,
        "day": 1596865356498
      },
      {
        "rate": 0.0,
        "day": 1596951756498
      },
      {
        "rate": 0.0,
        "day": 1597038156498
      },
      {
        "rate": 0.0,
        "day": 1597124556498
      },
      {
        "rate": 0.0,
        "day": 1597210956498
      },
      {
        "rate": 50.0,
        "day": 1597297356498
      },
      {
        "rate": 0.0,
        "day": 1597383756498
      },
      {
        "rate": 0.0,
        "day": 1597470156498
      },
      {
        "rate": 0.0,
        "day": 1597556556498
      },
      {
        "rate": 0.0,
        "day": 1597642956498
      },
      {
        "rate": 0.0,
        "day": 1597729356498
      },
      {
        "rate": 40.0,
        "day": 1597815756498
      },
      {
        "rate": 0.0,
        "day": 1597902156498
      },
      {
        "rate": 0.0,
        "day": 1597988556498
      },
      {
        "rate": 0.0,
        "day": 1598074956498
      }
    ]
  }
}