[
  {
    "sectionName": "小学",
    "childList": [
      {
        "gradeName": "一年级",
        "gradeId": "1"
      },
      {
        "gradeName": "二年级",
        "gradeId": "2"
      },
      {
        "gradeName": "三年级",
        "gradeId": "3"
      },
      {
        "gradeName": "四年级",
        "gradeId": "4"
      },
      {
        "gradeName": "五年级",
        "gradeId": "5"
      },
      {
        "gradeName": "六年级",
        "gradeId": "6"
      }
    ],
    "sectionId": "316"
  },
  {
    "sectionName": "初中",
    "childList": [
      {
        "gradeName": "初一",
        "gradeId": "1"
      },
      {
        "gradeName": "初二",
        "gradeId": "2"
      },
      {
        "gradeName": "初三",
        "gradeId": "3"
      },
      {
        "gradeName": "初四",
        "gradeId": "4"
      }
    ],
    "sectionId": "315"
  },
  {
    "sectionName": "高中",
    "childList": [
      {
        "gradeName": "高一",
        "gradeId": "1"
      },
      {
        "gradeName": "高二",
        "gradeId": "2"
      },
      {
        "gradeName": "高三",
        "gradeId": "3"
      }
    ],
    "sectionId": "313"
  }
]